{
  "emails": [
    { "email" : "a@gmail.com" },
    { "email" : "b@gmail.com" },
    { "email" : "c@gmail.com" },
    { "email" : "d@gmail.com" },
    { "email" : "e@gmail.com" },
    { "email" : "f@gmail.com" }
  ]
}
